[{
        "idCliTerapeuta": "1",
        "idPersona": "1",
        "run": "185097536",
        "nombre": "María Mireya",
        "a_paterno": "Acevedo",
        "a_materno": "Manríquez",
        "sexo": "femenino",
        "fechaN": "12-11-1991",
        "email": "0001@mail.com"
    }, {
        "idCliTerapeuta": "2",
        "idPersona": "102",
        "run": "109219584",
        "nombre": "Enrique",
        "a_paterno": "Acevedo",
        "a_materno": "Mejía",
        "sexo": "masculino",
        "fechaN": "12-10-1992",
        "email": "0002@mail.com"
    }, {
        "idCliTerapeuta": "3",
        "idPersona": "203",
        "run": "152755260",
        "nombre": "Carolina",
        "a_paterno": "Acevedo",
        "a_materno": "Ruiz",
        "sexo": "femenino",
        "fechaN": "12-09-1993",
        "email": "0003@mail.com"
    }, {
        "idCliTerapeuta": "4",
        "idPersona": "304",
        "run": "130364276",
        "nombre": "Tomás José",
        "a_paterno": "Acosta",
        "a_materno": "Canto",
        "sexo": "masculino",
        "fechaN": "13-01.1993",
        "email": "0004@mail.com"
    }, {
        "idCliTerapeuta": "5",
        "idPersona": "405",
        "run": "176980605",
        "nombre": "Celina",
        "a_paterno": "Acosta",
        "a_materno": "Gámez",
        "sexo": "femenino",
        "fechaN": "15-04-1995",
        "email": "0005@mail.com"
    }, {
        "idCliTerapeuta": "6",
        "idPersona": "506",
        "run": "205506608",
        "nombre": "Irma",
        "a_paterno": "Aguilar",
        "a_materno": "Dorantes",
        "sexo": "femenino",
        "fechaN": "07-10-1996",
        "email": "0006@mail.com"
    }, {
        "idCliTerapeuta": "7",
        "idPersona": "607",
        "run": "122320340",
        "nombre": "María Ofelia",
        "a_paterno": "Aguilar",
        "a_materno": "Lemus",
        "sexo": "femenino",
        "fechaN": "09-11-1992",
        "email": "0007@mail.com"
    }, {
        "idCliTerapeuta": "8",
        "idPersona": "708",
        "run": "176063742",
        "nombre": "Marcela",
        "a_paterno": "Aguilar",
        "a_materno": "Loranca",
        "sexo": "femenino",
        "fechaN": "08-09-1996",
        "email": "0008@mail.com"
    }, {
        "idCliTerapeuta": "9",
        "idPersona": "809",
        "run": "142964929",
        "nombre": "Fredy Francisco",
        "a_paterno": "Aguilar",
        "a_materno": "Pérez",
        "sexo": "femenino",
        "fechaN": "12-11-1995",
        "email": "0009@mail.com"
    }, {
        "idCliTerapeuta": "10",
        "idPersona": "910",
        "run": "100705761",
        "nombre": "Salomón",
        "a_paterno": "Alarcón",
        "a_materno": "Licona",
        "sexo": "masculino",
        "fechaN": "12-11-1992",
        "email": "0010@mail.com"
    }, {
        "idCliTerapeuta": "11",
        "idPersona": "1011",
        "run": "194560834",
        "nombre": "Gerardo Genaro",
        "a_paterno": "Alarcón",
        "a_materno": "López",
        "sexo": "masculino",
        "fechaN": "12-11-1993",
        "email": "0011@mail.com"
    }, {
        "idCliTerapeuta": "12",
        "idPersona": "1112",
        "run": "129849908",
        "nombre": "Hipólito",
        "a_paterno": "Alatriste",
        "a_materno": "Pérez",
        "sexo": "masculino",
        "fechaN": "12-11-1994",
        "email": "0012@mail.com"
    }, {
        "idCliTerapeuta": "13",
        "idPersona": "1213",
        "run": "189265794",
        "nombre": "José Israel",
        "a_paterno": "Alcántar",
        "a_materno": "Camacho",
        "sexo": "masculino",
        "fechaN": "12-11-1995",
        "email": "0013@mail.com"
    }, {
        "idCliTerapeuta": "14",
        "idPersona": "1314",
        "run": "156477656",
        "nombre": "Roberto Antonio",
        "a_paterno": "Alcoverde",
        "a_materno": "Martínez",
        "sexo": "masculino",
        "fechaN": "12-11-1996",
        "email": "0014@mail.com"
    }, {
        "idCliTerapeuta": "15",
        "idPersona": "1415",
        "run": "163144611",
        "nombre": "Jacinta Guillermina",
        "a_paterno": "Alderete",
        "a_materno": "Porras",
        "sexo": "femenino",
        "fechaN": "12-11-1997",
        "email": "0015@mail.com"
    }, {
        "idCliTerapeuta": "16",
        "idPersona": "1516",
        "run": "173073151",
        "nombre": "Adolfo",
        "a_paterno": "Aldrete",
        "a_materno": "Vargas",
        "sexo": "masculino",
        "fechaN": "12-11-1998",
        "email": "0016@mail.com"
    }, {
        "idCliTerapeuta": "17",
        "idPersona": "1617",
        "run": "157365630",
        "nombre": "Víctor Hugo",
        "a_paterno": "Alejo",
        "a_materno": "Guerrero",
        "sexo": "masculino",
        "fechaN": "12-11-1999",
        "email": "0017@mail.com"
    }, {
        "idCliTerapeuta": "18",
        "idPersona": "1718",
        "run": "127059225",
        "nombre": "Ma. del Rosario",
        "a_paterno": "Alemán",
        "a_materno": "Mundo",
        "sexo": "femenino",
        "fechaN": "01-11-1991",
        "email": "0018@mail.com"
    }, {
        "idCliTerapeuta": "19",
        "idPersona": "1819",
        "run": "175682325",
        "nombre": "Marcial",
        "a_paterno": "Alemán",
        "a_materno": "Mundo",
        "sexo": "femenino",
        "fechaN": "02-11-1991",
        "email": "0019@mail.com"
    }, {
        "idCliTerapeuta": "20",
        "idPersona": "1920",
        "run": "196733108",
        "nombre": "Rocío",
        "a_paterno": "Almogabar",
        "a_materno": "Santos",
        "sexo": "femenino",
        "fechaN": "03-11-1991",
        "email": "0020@mail.com"
    }, {
        "idCliTerapeuta": "21",
        "idPersona": "2021",
        "run": "205799044",
        "nombre": "Pascual Gerardo",
        "a_paterno": "Alonso",
        "a_materno": "Ibarra",
        "sexo": "masculino",
        "fechaN": "04-11-1991",
        "email": "0021@mail.com"
    }, {
        "idCliTerapeuta": "22",
        "idPersona": "2122",
        "run": "166978378",
        "nombre": "Jadilson",
        "a_paterno": "Alonso",
        "a_materno": "Navarro",
        "sexo": "femenino",
        "fechaN": "05-11-1991",
        "email": "0022@mail.com"
    }, {
        "idCliTerapeuta": "23",
        "idPersona": "2223",
        "run": "115458418",
        "nombre": "Enrique Alí",
        "a_paterno": "Altamirano",
        "a_materno": "García",
        "sexo": "masculino",
        "fechaN": "06-11-1991",
        "email": "0023@mail.com"
    }, {
        "idCliTerapeuta": "24",
        "idPersona": "2324",
        "run": "100168677",
        "nombre": "Jesús David",
        "a_paterno": "Alvarado",
        "a_materno": "Barbosa",
        "sexo": "masculino",
        "fechaN": "07-11-1991",
        "email": "0024@mail.com"
    }, {
        "idCliTerapeuta": "25",
        "idPersona": "2425",
        "run": "167045642",
        "nombre": "Oscar",
        "a_paterno": "Alvarado",
        "a_materno": "Mendoza",
        "sexo": "masculino",
        "fechaN": "08-11-1991",
        "email": "0025@mail.com"
    }, {
        "idCliTerapeuta": "26",
        "idPersona": "2526",
        "run": "157715127",
        "nombre": "Verónica",
        "a_paterno": "Álvarez",
        "a_materno": "Martínez",
        "sexo": "femenino",
        "fechaN": "09-11-1991",
        "email": "0026@mail.com"
    }, {
        "idCliTerapeuta": "27",
        "idPersona": "2627",
        "run": "127398755",
        "nombre": "Felipe",
        "a_paterno": "Álvarez",
        "a_materno": "Medellín",
        "sexo": "masculino",
        "fechaN": "10-11-1991",
        "email": "0027@mail.com"
    }, {
        "idCliTerapeuta": "28",
        "idPersona": "2728",
        "run": "18153463K",
        "nombre": "Salvador",
        "a_paterno": "Álvarez",
        "a_materno": "Villanueva",
        "sexo": "masculino",
        "fechaN": "11-11-1991",
        "email": "0028@mail.com"
    }, {
        "idCliTerapeuta": "29",
        "idPersona": "2829",
        "run": "157896563",
        "nombre": "Arturo Ramiro",
        "a_paterno": "Amaya",
        "a_materno": "Salvador",
        "sexo": "masculino",
        "fechaN": "13-11-1991",
        "email": "0029@mail.com"
    }, {
        "idCliTerapeuta": "30",
        "idPersona": "2930",
        "run": "101411591",
        "nombre": "Rafael",
        "a_paterno": "Andrade",
        "a_materno": "Bujanda",
        "sexo": "masculino",
        "fechaN": "14-11-1991",
        "email": "0030@mail.com"
    }, {
        "idCliTerapeuta": "31",
        "idPersona": "3031",
        "run": "127629501",
        "nombre": "Raúl",
        "a_paterno": "Angulo",
        "a_materno": "Garfias",
        "sexo": "masculino",
        "fechaN": "15-11-1991",
        "email": "0031@mail.com"
    }, {
        "idCliTerapeuta": "32",
        "idPersona": "3132",
        "run": "121270242",
        "nombre": "Miguel Ángel",
        "a_paterno": "Antemate",
        "a_materno": "Chigo",
        "sexo": "masculino",
        "fechaN": "16-11-1991",
        "email": "0032@mail.com"
    }, {
        "idCliTerapeuta": "33",
        "idPersona": "3233",
        "run": "179149109",
        "nombre": "Armando",
        "a_paterno": "Antonio",
        "a_materno": "Palomeque",
        "sexo": "masculino",
        "fechaN": "17-11-1991",
        "email": "0033@mail.com"
    }, {
        "idCliTerapeuta": "34",
        "idPersona": "3334",
        "run": "153330697",
        "nombre": "Martha Concepción",
        "a_paterno": "Anzures",
        "a_materno": "Valladares",
        "sexo": "masculino",
        "fechaN": "18-11-1991",
        "email": "0034@mail.com"
    }, {
        "idCliTerapeuta": "35",
        "idPersona": "3435",
        "run": "158132346",
        "nombre": "Gustavo",
        "a_paterno": "Aquiles",
        "a_materno": "Villaseñor",
        "sexo": "masculino",
        "fechaN": "19-11-1991",
        "email": "0035@mail.com"
    }, {
        "idCliTerapeuta": "36",
        "idPersona": "3536",
        "run": "176744073",
        "nombre": "Castro Alfredo",
        "a_paterno": "Aragón",
        "a_materno": "Jiménez",
        "sexo": "masculino",
        "fechaN": "20-11-1991",
        "email": "0036@mail.com"
    }, {
        "idCliTerapeuta": "37",
        "idPersona": "3637",
        "run": "151098622",
        "nombre": "Alberto",
        "a_paterno": "Arbea",
        "a_materno": "Pérez",
        "sexo": "masculino",
        "fechaN": "21-11-1991",
        "email": "0036@mail.com"
    }, {
        "idCliTerapeuta": "38",
        "idPersona": "3738",
        "run": "12927865K",
        "nombre": "Ernesto",
        "a_paterno": "Argüello",
        "a_materno": "Melgar",
        "sexo": "masculino",
        "fechaN": "22-11-1991",
        "email": "0037@mail.com"
    }, {
        "idCliTerapeuta": "39",
        "idPersona": "3839",
        "run": "196039961",
        "nombre": "Rosalía",
        "a_paterno": "Argumosa",
        "a_materno": "López",
        "sexo": "femenino",
        "fechaN": "23-11-1991",
        "email": "0038@mail.com"
    }, {
        "idCliTerapeuta": "40",
        "idPersona": "3940",
        "run": "189863578",
        "nombre": "Socorro",
        "a_paterno": "Arias",
        "a_materno": "Rodríguez",
        "sexo": "femenino",
        "fechaN": "24-11-1991",
        "email": "0039@mail.com"
    }, {
        "idCliTerapeuta": "41",
        "idPersona": "4041",
        "run": "152403933",
        "nombre": "Óscar Guillermo",
        "a_paterno": "Armenta",
        "a_materno": "Romero",
        "sexo": "masculino",
        "fechaN": "25-11-1991",
        "email": "0040@mail.com"
    }, {
        "idCliTerapeuta": "42",
        "idPersona": "4142",
        "run": "11505001K",
        "nombre": "Javier",
        "a_paterno": "Arnaud",
        "a_materno": "Viñas",
        "sexo": "masculino",
        "fechaN": "26-11-1991",
        "email": "0041@mail.com"
    }, {
        "idCliTerapeuta": "43",
        "idPersona": "4243",
        "run": "111580561",
        "nombre": "Javier Leonardo",
        "a_paterno": "Arredondo",
        "a_materno": "Ovalle",
        "sexo": "masculino",
        "fechaN": "27-11-1991",
        "email": "0042@mail.com"
    }, {
        "idCliTerapeuta": "44",
        "idPersona": "4344",
        "run": "149893792",
        "nombre": "Luis Fernando",
        "a_paterno": "Arreola",
        "a_materno": "Amante",
        "sexo": "masculino",
        "fechaN": "28-11-1991",
        "email": "0043@mail.com"
    }, {
        "idCliTerapeuta": "45",
        "idPersona": "4445",
        "run": "139517849",
        "nombre": "Adolfo",
        "a_paterno": "Arreygue",
        "a_materno": "Arreygue",
        "sexo": "masculino",
        "fechaN": "29-11-1991",
        "email": "0044@mail.com"
    }, {
        "idCliTerapeuta": "46",
        "idPersona": "4546",
        "run": "17358847K",
        "nombre": "Joaquín Hugo",
        "a_paterno": "Arrona",
        "a_materno": "Paredes",
        "sexo": "masculino",
        "fechaN": "30-11-1991",
        "email": "0045@mail.com"
    }, {
        "idCliTerapeuta": "47",
        "idPersona": "4647",
        "run": "192882036",
        "nombre": "Pedro",
        "a_paterno": "Arroyo",
        "a_materno": "Soto",
        "sexo": "masculino",
        "fechaN": "31-11-1991",
        "email": "0046@mail.com"
    }, {
        "idCliTerapeuta": "48",
        "idPersona": "4748",
        "run": "13191959K",
        "nombre": "María Yolanda",
        "a_paterno": "Ascencio",
        "a_materno": "López",
        "sexo": "femenino",
        "fechaN": "12-01-1991",
        "email": "0047@mail.com"
    }, {
        "idCliTerapeuta": "49",
        "idPersona": "4849",
        "run": "102732103",
        "nombre": "Miguel",
        "a_paterno": "Ávalos",
        "a_materno": "Mendoza",
        "sexo": "masculino",
        "fechaN": "12-02-1991",
        "email": "0048@mail.com"
    }, {
        "idCliTerapeuta": "50",
        "idPersona": "4950",
        "run": "209636557",
        "nombre": "María del Socorro",
        "a_paterno": "Avendaño",
        "a_materno": "Núñez",
        "sexo": "femenino",
        "fechaN": "12-03-1991",
        "email": "0049@mail.com"
    }, {
        "idCliTerapeuta": "51",
        "idPersona": "5051",
        "run": "179855615",
        "nombre": "Alfonso",
        "a_paterno": "Avianeda",
        "a_materno": "Chávez",
        "sexo": "masculino",
        "fechaN": "12-04-1991",
        "email": "0050@mail.com"
    }, {
        "idCliTerapeuta": "52",
        "idPersona": "5152",
        "run": "137977311",
        "nombre": "José Ambrosio",
        "a_paterno": "Ávila",
        "a_materno": "Becerril",
        "sexo": "masculino",
        "fechaN": "12-05-1991",
        "email": "0051@mail.com"
    }, {
        "idCliTerapeuta": "53",
        "idPersona": "5253",
        "run": "194029853",
        "nombre": "Sandra Walkyria",
        "a_paterno": "Ayala",
        "a_materno": "Jiménez",
        "sexo": "femenino",
        "fechaN": "12-06-1991",
        "email": "0052@mail.com"
    }, {
        "idCliTerapeuta": "54",
        "idPersona": "5354",
        "run": "155680504",
        "nombre": "Mario Andrés",
        "a_paterno": "Ayala",
        "a_materno": "Quijano",
        "sexo": "masculino",
        "fechaN": "12-07-1991",
        "email": "0053@mail.com"
    }, {
        "idCliTerapeuta": "55",
        "idPersona": "5455",
        "run": "143494950",
        "nombre": "Guillermo",
        "a_paterno": "Bacab",
        "a_materno": "Pech",
        "sexo": "masculino",
        "fechaN": "12-08-1991",
        "email": "0054@mail.com"
    }, {
        "idCliTerapeuta": "56",
        "idPersona": "5556",
        "run": "172760104",
        "nombre": "Ángel Salvador",
        "a_paterno": "Báez",
        "a_materno": "Chávez",
        "sexo": "masculino",
        "fechaN": "12-09-1991",
        "email": "0055@mail.com"
    }, {
        "idCliTerapeuta": "57",
        "idPersona": "5657",
        "run": "208560875",
        "nombre": "Luis Alberto",
        "a_paterno": "Balderas",
        "a_materno": "Flores",
        "sexo": "masculino",
        "fechaN": "12-10-1991",
        "email": "0056@mail.com"
    }, {
        "idCliTerapeuta": "58",
        "idPersona": "5758",
        "run": "182810541",
        "nombre": "Francisco",
        "a_paterno": "Ballesteros",
        "a_materno": "González",
        "sexo": "masculino",
        "fechaN": "12-12-1991",
        "email": "0057@mail.com"
    }, {
        "idCliTerapeuta": "59",
        "idPersona": "5859",
        "run": "125202918",
        "nombre": "Rubio Raúl",
        "a_paterno": "Ballesteros",
        "a_materno": "Gutiérrez",
        "sexo": "masculino",
        "fechaN": "12-11-1981",
        "email": "0058@mail.com"
    }, {
        "idCliTerapeuta": "60",
        "idPersona": "5960",
        "run": "166046874",
        "nombre": "Laura Elizabeth",
        "a_paterno": "Baltazar",
        "a_materno": "Cedeño",
        "sexo": "femenino",
        "fechaN": "12-10-1981",
        "email": "0059@mail.com"
    }, {
        "idCliTerapeuta": "61",
        "idPersona": "6061",
        "run": "179878704",
        "nombre": "Luis Rubén",
        "a_paterno": "Baltazar",
        "a_materno": "Cedeño",
        "sexo": "masculino",
        "fechaN": "12-09-1980",
        "email": "0060@mail.com"
    }, {
        "idCliTerapeuta": "62",
        "idPersona": "6162",
        "run": "138308448",
        "nombre": "Francisco",
        "a_paterno": "Banda",
        "a_materno": "Jiménez",
        "sexo": "masculino",
        "fechaN": "12-11-1982",
        "email": "0061@mail.com"
    }, {
        "idCliTerapeuta": "63",
        "idPersona": "6263",
        "run": "195203377",
        "nombre": "Vicente Arturo",
        "a_paterno": "Banderas",
        "a_materno": "Rocha",
        "sexo": "masculino",
        "fechaN": "12-11-1984",
        "email": "0063@mail.com"
    }, {
        "idCliTerapeuta": "64",
        "idPersona": "6364",
        "run": "203969341",
        "nombre": "Enrique Luis",
        "a_paterno": "Barraza",
        "a_materno": "Uribe",
        "sexo": "masculino",
        "fechaN": "12-11-1985",
        "email": "0064@mail.com"
    }, {
        "idCliTerapeuta": "65",
        "idPersona": "6465",
        "run": "149394877",
        "nombre": "Alfredo",
        "a_paterno": "Barrera",
        "a_materno": "Flores",
        "sexo": "masculino",
        "fechaN": "12-11-1986",
        "email": "0065@mail.com"
    }, {
        "idCliTerapeuta": "66",
        "idPersona": "6566",
        "run": "146176461",
        "nombre": "Juan Ramón",
        "a_paterno": "Barreto",
        "a_materno": "López",
        "sexo": "masculino",
        "fechaN": "12-11-1987",
        "email": "0066@mail.com"
    }, {
        "idCliTerapeuta": "67",
        "idPersona": "6667",
        "run": "129545151",
        "nombre": "Matilde",
        "a_paterno": "Basaldúa",
        "a_materno": "Ramírez",
        "sexo": "femenino",
        "fechaN": "12-11-1988",
        "email": "0067@mail.com"
    }, {
        "idCliTerapeuta": "68",
        "idPersona": "6768",
        "run": "108344008",
        "nombre": "Audel",
        "a_paterno": "Bastidas",
        "a_materno": "Iribe",
        "sexo": "masculino",
        "fechaN": "12-11-1989",
        "email": "0068@mail.com"
    }, {
        "idCliTerapeuta": "69",
        "idPersona": "6869",
        "run": "138010201",
        "nombre": "Alfredo Manuel",
        "a_paterno": "Bautista",
        "a_materno": "Encina",
        "sexo": "masculino",
        "fechaN": "12-11-1970",
        "email": "0069@mail.com"
    }, {
        "idCliTerapeuta": "70",
        "idPersona": "6970",
        "run": "174321477",
        "nombre": "Alejandro",
        "a_paterno": "Bautista",
        "a_materno": "Mejía",
        "sexo": "masculino",
        "fechaN": "12-11-1971",
        "email": "0070@mail.com"
    }, {
        "idCliTerapeuta": "71",
        "idPersona": "7071",
        "run": "114466492",
        "nombre": "Juan Miguel de Jesús",
        "a_paterno": "Bautista",
        "a_materno": "Vázquez",
        "sexo": "masculino",
        "fechaN": "12-11-1972",
        "email": "0071@mail.com"
    }, {
        "idCliTerapeuta": "72",
        "idPersona": "7172",
        "run": "144642287",
        "nombre": "Gregorio",
        "a_paterno": "Benítez",
        "a_materno": "Ferrusquía",
        "sexo": "masculino",
        "fechaN": "12-11-1973",
        "email": "0072@mail.com"
    }, {
        "idCliTerapeuta": "73",
        "idPersona": "7273",
        "run": "174589070",
        "nombre": "José Antonio",
        "a_paterno": "Bermúdez",
        "a_materno": "Manrique",
        "sexo": "masculino",
        "fechaN": "12-11-1974",
        "email": "0073@mail.com"
    }, {
        "idCliTerapeuta": "74",
        "idPersona": "7374",
        "run": "170831349",
        "nombre": "Salvador Antonio",
        "a_paterno": "Bermúdez",
        "a_materno": "Manrique",
        "sexo": "masculino",
        "fechaN": "12-11-1975",
        "email": "0074@mail.com"
    }, {
        "idCliTerapeuta": "75",
        "idPersona": "7475",
        "run": "201328772",
        "nombre": "Gigliola Taide",
        "a_paterno": "Bernal",
        "a_materno": "Rosales",
        "sexo": "femenino",
        "fechaN": "12-11-1976",
        "email": "0075@mail.com"
    }, {
        "idCliTerapeuta": "76",
        "idPersona": "7576",
        "run": "158335220",
        "nombre": "Miguel Ángel",
        "a_paterno": "Betancourt",
        "a_materno": "Vázquez",
        "sexo": "masculino",
        "fechaN": "12-11-1977",
        "email": "0076@mail.com"
    }, {
        "idCliTerapeuta": "77",
        "idPersona": "7677",
        "run": "153014086",
        "nombre": "Noel",
        "a_paterno": "Betanzos",
        "a_materno": "Torres",
        "sexo": "masculino",
        "fechaN": "12-11-1978",
        "email": "0077@mail.com"
    }, {
        "idCliTerapeuta": "78",
        "idPersona": "7778",
        "run": "118168038",
        "nombre": "Humberto Alejandro",
        "a_paterno": "Blanco",
        "a_materno": "Velasco",
        "sexo": "masculino",
        "fechaN": "12-11-1979",
        "email": "0078@mail.com"
    }, {
        "idCliTerapeuta": "79",
        "idPersona": "7879",
        "run": "200681398",
        "nombre": "César",
        "a_paterno": "Bolaños",
        "a_materno": "Sánchez",
        "sexo": "masculino",
        "fechaN": "12-11-1960",
        "email": "0079@mail.com"
    }, {
        "idCliTerapeuta": "80",
        "idPersona": "7980",
        "run": "139817109",
        "nombre": "Moisés",
        "a_paterno": "Bremermann",
        "a_materno": "Borraz",
        "sexo": "masculino",
        "fechaN": "12-11-1961",
        "email": "0080@mail.com"
    }, {
        "idCliTerapeuta": "81",
        "idPersona": "8081",
        "run": "140686301",
        "nombre": "Abel",
        "a_paterno": "Briseño",
        "a_materno": "Arias",
        "sexo": "masculino",
        "fechaN": "12-11-1962",
        "email": "0081@mail.com"
    }, {
        "idCliTerapeuta": "82",
        "idPersona": "8182",
        "run": "137377160",
        "nombre": "Iván",
        "a_paterno": "Buenfil",
        "a_materno": "Díaz",
        "sexo": "masculino",
        "fechaN": "12-11-1963",
        "email": "0082@mail.com"
    }, {
        "idCliTerapeuta": "83",
        "idPersona": "8283",
        "run": "156664197",
        "nombre": "Miguel Ángel",
        "a_paterno": "Burguete",
        "a_materno": "García",
        "sexo": "masculino",
        "fechaN": "12-11-1964",
        "email": "0083@mail.com"
    }, {
        "idCliTerapeuta": "84",
        "idPersona": "8384",
        "run": "123709845",
        "nombre": "J. Guadalupe",
        "a_paterno": "Bustamante",
        "a_materno": "Guerrero",
        "sexo": "femenino",
        "fechaN": "12-11-1965",
        "email": "0084@mail.com"
    }, {
        "idCliTerapeuta": "85",
        "idPersona": "8485",
        "run": "157803883",
        "nombre": "Francisco",
        "a_paterno": "Caballero",
        "a_materno": "Green",
        "sexo": "masculino",
        "fechaN": "12-11-1967",
        "email": "0085@mail.com"
    }, {
        "idCliTerapeuta": "86",
        "idPersona": "8586",
        "run": "195273375",
        "nombre": "Prudenciano",
        "a_paterno": "Caballero",
        "a_materno": "Valle",
        "sexo": "masculino",
        "fechaN": "12-11-1968",
        "email": "0086@mail.com"
    }, {
        "idCliTerapeuta": "87",
        "idPersona": "8687",
        "run": "141937529",
        "nombre": "Juana Patricia",
        "a_paterno": "Cadena",
        "a_materno": "Palacios",
        "sexo": "masculino",
        "fechaN": "12-11-1969",
        "email": "0087@mail.com"
    }, {
        "idCliTerapeuta": "88",
        "idPersona": "8788",
        "run": "147461054",
        "nombre": "Juan Gabriel",
        "a_paterno": "Calvillo",
        "a_materno": "Carrasco",
        "sexo": "masculino",
        "fechaN": "12-11-1950",
        "email": "0088@mail.com"
    }, {
        "idCliTerapeuta": "89",
        "idPersona": "8889",
        "run": "104822479",
        "nombre": "Sandra Verónica",
        "a_paterno": "Camacho",
        "a_materno": "Cárdenas",
        "sexo": "femenino",
        "fechaN": "12-11-1950",
        "email": "0089@mail.com"
    }, {
        "idCliTerapeuta": "90",
        "idPersona": "8990",
        "run": "101736288",
        "nombre": "Jorge Alberto",
        "a_paterno": "Camacho",
        "a_materno": "Pérez",
        "sexo": "masculino",
        "fechaN": "12-11-1951",
        "email": "0090@mail.com"
    }, {
        "idCliTerapeuta": "91",
        "idPersona": "9091",
        "run": "10405319K",
        "nombre": "César Armando",
        "a_paterno": "Cámara",
        "a_materno": "Contreras",
        "sexo": "masculino",
        "fechaN": "12-11-1952",
        "email": "0091@mail.com"
    }, {
        "idCliTerapeuta": "92",
        "idPersona": "9192",
        "run": "195690197",
        "nombre": "Dante Adrián",
        "a_paterno": "Camarillo",
        "a_materno": "Palafox",
        "sexo": "masculino",
        "fechaN": "12-11-1953",
        "email": "0092@mail.com"
    }, {
        "idCliTerapeuta": "93",
        "idPersona": "9293",
        "run": "180183647",
        "nombre": "María de Lourdes",
        "a_paterno": "Campos",
        "a_materno": "Campos",
        "sexo": "femenino",
        "fechaN": "12-11-1954",
        "email": "0093@mail.com"
    }, {
        "idCliTerapeuta": "94",
        "idPersona": "9394",
        "run": "123038991",
        "nombre": "Jorge Alonso",
        "a_paterno": "Campos",
        "a_materno": "Saito",
        "sexo": "masculino",
        "fechaN": "12-11-1955",
        "email": "0094@mail.com"
    }, {
        "idCliTerapeuta": "95",
        "idPersona": "9495",
        "run": "178457691",
        "nombre": "Erick Fernando",
        "a_paterno": "Cano",
        "a_materno": "Figueroa",
        "sexo": "masculino",
        "fechaN": "12-11-1957",
        "email": "0096@mail.com"
    }, {
        "idCliTerapeuta": "96",
        "idPersona": "9596",
        "run": "164262871",
        "nombre": "Bethsabé",
        "a_paterno": "Canseco",
        "a_materno": "Sosa",
        "sexo": "femenino",
        "fechaN": "12-11-1958",
        "email": "0097@mail.com"
    }, {
        "idCliTerapeuta": "97",
        "idPersona": "9697",
        "run": "11219293K",
        "nombre": "Nicéforo",
        "a_paterno": "Cantú",
        "a_materno": "Garza",
        "sexo": "masculino",
        "fechaN": "12-11-1940",
        "email": "0099@mail.com"
    }, {
        "idCliTerapeuta": "98",
        "idPersona": "9798",
        "run": "183383353",
        "nombre": "Juan José",
        "a_paterno": "Cantú",
        "a_materno": "Treviño",
        "sexo": "masculino",
        "fechaN": "12-11-1941",
        "email": "0100@mail.com"
    }, {
        "idCliTerapeuta": "99",
        "idPersona": "9899",
        "run": "117713482",
        "nombre": "Mario",
        "a_paterno": "Cantú",
        "a_materno": "Treviño",
        "sexo": "masculino",
        "fechaN": "12-11-1942",
        "email": "0101@mail.com"
    }, {
        "idCliTerapeuta": "100",
        "idPersona": "10000",
        "run": "115735586",
        "nombre": "Marco Antonio",
        "a_paterno": "Cárdenas",
        "a_materno": "Cornejo",
        "sexo": "masculino",
        "fechaN": "12-11-1943",
        "email": "0102@mail.com"
    }, {
        "idCliTerapeuta": "101",
        "idPersona": "10101",
        "run": "191608992",
        "nombre": "Cosme Ernesto",
        "a_paterno": "Cárdenas",
        "a_materno": "Gómez",
        "sexo": "masculino",
        "fechaN": "12-11-1944",
        "email": "0103@mail.com"
    }, {
        "idCliTerapeuta": "102",
        "idPersona": "10202",
        "run": "172468403",
        "nombre": "Jacqueline",
        "a_paterno": "Cárdenas",
        "a_materno": "Silva",
        "sexo": "femenino",
        "fechaN": "12-11-1945",
        "email": "0104@mail.com"
    }, {
        "idCliTerapeuta": "103",
        "idPersona": "10303",
        "run": "130065074",
        "nombre": "Marcos",
        "a_paterno": "Cardona",
        "a_materno": "Salazar",
        "sexo": "masculino",
        "fechaN": "12-11-1946",
        "email": "0105@mail.com"
    }, {
        "idCliTerapeuta": "104",
        "idPersona": "10404",
        "run": "134266023",
        "nombre": "Laura Olivia",
        "a_paterno": "Cardoso",
        "a_materno": "Capistrán",
        "sexo": "femenino",
        "fechaN": "12-11-1949",
        "email": "0106@mail.com"
    }, {
        "idCliTerapeuta": "105",
        "idPersona": "10505",
        "run": "141320203",
        "nombre": "Agustín Guadalupe",
        "a_paterno": "Carreño",
        "a_materno": "Chapa",
        "sexo": "masculino",
        "fechaN": "12-11-1950",
        "email": "0107@mail.com"
    }, {
        "idCliTerapeuta": "106",
        "idPersona": "10606",
        "run": "209744864",
        "nombre": "Gonzalo",
        "a_paterno": "Carrera",
        "a_materno": "Molina",
        "sexo": "masculino",
        "fechaN": "20-10-1959",
        "email": "0108@mail.com"
    }]
