12-11-2018
12-10-2018
12-09-2018
13-01.2018
15-04-2018
07-10-2018
09-11-2018
08-09-2018
12-11-2018
13-11-2018
14-11-2018
15-11-2018
16-11-2018
17-11-2018
18-11-2018
19-11-2019
20-11-2019
01-11-2018
02-11-2018
03-11-2018
04-11-2018
05-11-2019
06-11-2019
07-11-2019
08-11-2019
09-11-2019
10-11-2019
11-11-2019
13-11-2019
14-11-2019
15-11-2019
16-11-2019
17-11-2019
18-11-2019
19-11-2019
20-11-2019
21-11-2019
22-11-2019
23-11-2019
24-11-2019
25-11-2019
26-11-2019
27-11-2019
28-11-2019

