Acevedo,Manríquez,María Mireya,0001@mail.com,12-11-1991,0,clave1234
Acevedo,Mejía,Enrique,0002@mail.com,12-10-1992,1,clave1234
Acevedo,Ruiz,Carolina,0003@mail.com,12-09-1993,0,clave1234
Acosta,Canto,Tomás José,0004@mail.com,13-01.1993,1,clave1234
Acosta,Gámez,Celina,0005@mail.com,15-04-1995,0,clave1234
Aguilar,Dorantes,Irma,0006@mail.com,07-10-1996,0,clave1234
Aguilar,Lemus,María Ofelia,0007@mail.com,09-11-1992,0,clave1234
Aguilar,Loranca,Marcela,0008@mail.com,08-09-1996,0,clave1234
Aguilar,Pérez,Fredy Francisco,0009@mail.com,12-11-1995,0,clave1234
Alarcón,Licona,Salomón,0010@mail.com,12-11-1992,1,clave1234
Alarcón,López,Gerardo Genaro,0011@mail.com,12-11-1993,1,clave1234
Alatriste,Pérez,Hipólito,0012@mail.com,12-11-1994,1,clave1234
Alcántar,Camacho,José Israel,0013@mail.com,12-11-1995,1,clave1234
Alcoverde,Martínez,Roberto Antonio,0014@mail.com,12-11-1996,1,clave1234
Alderete,Porras,Jacinta Guillermina,0015@mail.com,12-11-1997,0,clave1234
Aldrete,Vargas,Adolfo,0016@mail.com,12-11-1998,1,clave1234
Alejo,Guerrero,Víctor Hugo,0017@mail.com,12-11-1999,1,clave1234
Alemán,Mundo,Ma. del Rosario,0018@mail.com,01-11-1991,0,clave1234
Alemán,Mundo,Marcial,0019@mail.com,02-11-1991,0,clave1234
Almogabar,Santos,Rocío,0020@mail.com,03-11-1991,0,clave1234
Alonso,Ibarra,Pascual Gerardo,0021@mail.com,04-11-1991,1,clave1234
Alonso,Navarro,Jadilson,0022@mail.com,05-11-1991,0,clave1234
Altamirano,García,Enrique Alí,0023@mail.com,06-11-1991,1,clave1234
Alvarado,Barbosa,Jesús David,0024@mail.com,07-11-1991,1,clave1234
Alvarado,Mendoza,Oscar,0025@mail.com,08-11-1991,1,clave1234
Álvarez,Martínez,Verónica,0026@mail.com,09-11-1991,0,clave1234
Álvarez,Medellín,Felipe,0027@mail.com,10-11-1991,1,clave1234
Álvarez,Villanueva,Salvador,0028@mail.com,11-11-1991,1,clave1234
Amaya,Salvador,Arturo Ramiro,0029@mail.com,13-11-1991,1,clave1234
Andrade,Bujanda,Rafael,0030@mail.com,14-11-1991,1,clave1234
Angulo,Garfias,Raúl,0031@mail.com,15-11-1991,1,clave1234
Antemate,Chigo,Miguel Ángel,0032@mail.com,16-11-1991,1,clave1234
Antonio,Palomeque,Armando,0033@mail.com,17-11-1991,1,clave1234
Anzures,Valladares,Martha Concepción,0034@mail.com,18-11-1991,1,clave1234
Aquiles,Villaseñor,Gustavo,0035@mail.com,19-11-1991,1,clave1234
Aragón,Jiménez,Castro Alfredo,0036@mail.com,20-11-1991,1,clave1234
Arbea,Pérez,Alberto,0036@mail.com,21-11-1991,1,clave1234
Argüello,Melgar,Ernesto,0037@mail.com,22-11-1991,1,clave1234
Argumosa,López,Rosalía,0038@mail.com,23-11-1991,0,clave1234
Arias,Rodríguez,Socorro,0039@mail.com,24-11-1991,0,clave1234
Armenta,Romero,Óscar Guillermo,0040@mail.com,25-11-1991,1,clave1234
Arnaud,Viñas,Javier,0041@mail.com,26-11-1991,1,clave1234
Arredondo,Ovalle,Javier Leonardo,0042@mail.com,27-11-1991,1,clave1234
Arreola,Amante,Luis Fernando,0043@mail.com,28-11-1991,1,clave1234
Arreygue,Arreygue,Adolfo,0044@mail.com,29-11-1991,1,clave1234
Arrona,Paredes,Joaquín Hugo,0045@mail.com,30-11-1991,1,clave1234
Arroyo,Soto,Pedro,0046@mail.com,31-11-1991,1,clave1234
Ascencio,López,María Yolanda,0047@mail.com,12-01-1991,0,clave1234
Ávalos,Mendoza,Miguel,0048@mail.com,12-02-1991,1,clave1234
Avendaño,Núñez,María del Socorro,0049@mail.com,12-03-1991,0,clave1234
Avianeda,Chávez,Alfonso,0050@mail.com,12-04-1991,1,clave1234
Ávila,Becerril,José Ambrosio,0051@mail.com,12-05-1991,1,clave1234
Ayala,Jiménez,Sandra Walkyria,0052@mail.com,12-06-1991,0,clave1234
Ayala,Quijano,Mario Andrés,0053@mail.com,12-07-1991,1,clave1234
Bacab,Pech,Guillermo,0054@mail.com,12-08-1991,1,clave1234
Báez,Chávez,Ángel Salvador,0055@mail.com,12-09-1991,1,clave1234
Balderas,Flores,Luis Alberto,0056@mail.com,12-10-1991,1,clave1234
Ballesteros,González,Francisco,0057@mail.com,12-12-1991,1,clave1234
Ballesteros,Gutiérrez,Rubio Raúl,0058@mail.com,12-11-1981,1,clave1234
Baltazar,Cedeño,Laura Elizabeth,0059@mail.com,12-10-1981,0,clave1234
Baltazar,Cedeño,Luis Rubén,0060@mail.com,12-09-1980,1,clave1234
Banda,Jiménez,Francisco,0061@mail.com,12-11-1982,1,clave1234
Banderas,Rocha,Vicente Arturo,0063@mail.com,12-11-1984,1,clave1234
Barraza,Uribe,Enrique Luis,0064@mail.com,12-11-1985,1,clave1234
Barrera,Flores,Alfredo,0065@mail.com,12-11-1986,1,clave1234
Barreto,López,Juan Ramón,0066@mail.com,12-11-1987,1,clave1234
Basaldúa,Ramírez,Matilde,0067@mail.com,12-11-1988,0,clave1234
Bastidas,Iribe,Audel,0068@mail.com,12-11-1989,1,clave1234
Bautista,Encina,Alfredo Manuel,0069@mail.com,12-11-1970,1,clave1234
Bautista,Mejía,Alejandro,0070@mail.com,12-11-1971,1,clave1234
Bautista,Vázquez,Juan Miguel de Jesús,0071@mail.com,12-11-1972,1,clave1234
Benítez,Ferrusquía,Gregorio,0072@mail.com,12-11-1973,1,clave1234
Bermúdez,Manrique,José Antonio,0073@mail.com,12-11-1974,1,clave1234
Bermúdez,Manrique,Salvador Antonio,0074@mail.com,12-11-1975,1,clave1234
Bernal,Rosales,Gigliola Taide,0075@mail.com,12-11-1976,0,clave1234
Betancourt,Vázquez,Miguel Ángel,0076@mail.com,12-11-1977,1,clave1234
Betanzos,Torres,Noel,0077@mail.com,12-11-1978,1,clave1234
Blanco,Velasco,Humberto Alejandro,0078@mail.com,12-11-1979,1,clave1234
Bolaños,Sánchez,César,0079@mail.com,12-11-1960,1,clave1234
Bremermann,Borraz,Moisés,0080@mail.com,12-11-1961,1,clave1234
Briseño,Arias,Abel,0081@mail.com,12-11-1962,1,clave1234
Buenfil,Díaz,Iván,0082@mail.com,12-11-1963,1,clave1234
Burguete,García,Miguel Ángel,0083@mail.com,12-11-1964,1,clave1234
Bustamante,Guerrero,J. Guadalupe,0084@mail.com,12-11-1965,0,clave1234
Caballero,Green,Francisco,0085@mail.com,12-11-1967,1,clave1234
Caballero,Valle,Prudenciano,0086@mail.com,12-11-1968,1,clave1234
Cadena,Palacios,Juana Patricia,0087@mail.com,12-11-1969,1,clave1234
Calvillo,Carrasco,Juan Gabriel,0088@mail.com,12-11-1950,1,clave1234
Camacho,Cárdenas,Sandra Verónica,0089@mail.com,12-11-1950,0,clave1234
Camacho,Pérez,Jorge Alberto,0090@mail.com,12-11-1951,1,clave1234
Cámara,Contreras,César Armando,0091@mail.com,12-11-1952,1,clave1234
Camarillo,Palafox,Dante Adrián,0092@mail.com,12-11-1953,1,clave1234
Campos,Campos,María de Lourdes,0093@mail.com,12-11-1954,0,clave1234
Campos,Saito,Jorge Alonso,0094@mail.com,12-11-1955,1,clave1234
Cano,Figueroa,Erick Fernando,0096@mail.com,12-11-1957,1,clave1234
Canseco,Sosa,Bethsabé,0097@mail.com,12-11-1958,0,clave1234
Cantú,Garza,Nicéforo,0099@mail.com,12-11-1940,1,clave1234
Cantú,Treviño,Juan José,0100@mail.com,12-11-1941,1,clave1234
Cantú,Treviño,Mario,0101@mail.com,12-11-1942,1,clave1234
Cárdenas,Cornejo,Marco Antonio,0102@mail.com,12-11-1943,1,clave1234
Cárdenas,Gómez,Cosme Ernesto,0103@mail.com,12-11-1944,1,clave1234
Cárdenas,Silva,Jacqueline,0104@mail.com,12-11-1945,0,clave1234
Cardona,Salazar,Marcos,0105@mail.com,12-11-1946,1,clave1234
Cardoso,Capistrán,Laura Olivia,0106@mail.com,12-11-1949,0,clave1234
Carreño,Chapa,Agustín Guadalupe,0107@mail.com,12-11-1950,1,clave1234
Carrera,Molina,Gonzalo,0108@mail.com,20-10-1959,1,clave1234